…
## Data

For the basic data, this uses the files in the test folder of this package ("test\data"). The "daily_ret.csv" file is a selection of firm returns, while "mkt_ret.csv" includes the average market return along with some Fama-French factor returns, you can download similar Fama-French data from [here](https://mba.tuck.dartmouth.edu/pages/faculty/ken.french/data_library.html) and stock market data from [AlphaVantage.jl](https://github.com/ellisvalentiner/AlphaVantage.jl) or [WRDSMerger.jl](https://github.com/junder873/WRDSMerger.jl) (requires access to the WRDS database).

The firm data uses "Permno" to identify a stock. This package will work with other identifiers, as long as the identifier-date pair is unique.

Load the firm data:
```julia
df_firm = CSV.File(joinpath("data", "daily_ret.csv")) |> DataFrame
```

```
48659×4 DataFrame
   Row │ permno  date        ret           vol
       │ Int64   Date        Float64?      Float64
───────┼──────────────────────────────────────────────────
     1 │  10104  2019-01-02   0.00155038        1.43204e7
     2 │  10104  2019-01-03  -0.00973026        1.98687e7
     3 │  10104  2019-01-04   0.0430996         2.0984e7
     4 │  10104  2019-01-07   0.0158425         1.79679e7
     5 │  10104  2019-01-08   0.00906218        1.62557e7
     6 │  10104  2019-01-09  -0.0020886         1.91002e7
     7 │  10104  2019-01-10   0.00083719        1.66527e7
     8 │  10104  2019-01-11   0.00982855        1.63975e7
   ⋮   │   ⋮         ⋮            ⋮              ⋮
 48653 │  91668  2020-12-22   0.0112328    332197.0
 48654 │  91668  2020-12-23   0.00639975   182199.0
 48655 │  91668  2020-12-24   0.00367913    39932.0
 48656 │  91668  2020-12-28   0.0184641    162785.0
 48657 │  91668  2020-12-29  -0.0155966    140853.0
 48658 │  91668  2020-12-30   0.0124131    119724.0
 48659 │  91668  2020-12-31  -0.00222926   196481.0
                                        48644 rows omitted
```





and the market data:
```julia
df_mkt = CSV.File(joinpath("data", "mkt_ret.csv")) |> DataFrame
df_mkt[!, :mkt] = df_mkt.mktrf .+ df_mkt.rf
df_mkt
```

```
672×7 DataFrame
 Row │ date        mktrf    smb      hml      rf       umd      mkt
     │ Date        Float64  Float64  Float64  Float64  Float64  Float64
─────┼──────────────────────────────────────────────────────────────────
   1 │ 2019-01-02   0.0023   0.006    0.0113   0.0001  -0.023    0.0024
   2 │ 2019-01-03  -0.0245   0.0036   0.012    0.0001  -0.0078  -0.0244
   3 │ 2019-01-04   0.0355   0.0041  -0.007    0.0001  -0.0097   0.0356
   4 │ 2019-01-07   0.0094   0.0101  -0.0074   0.0001  -0.0077   0.0095
   5 │ 2019-01-08   0.0101   0.0054  -0.0063   0.0001   0.0011   0.0102
   6 │ 2019-01-09   0.0056   0.0046   0.001    0.0001  -0.0083   0.0057
   7 │ 2019-01-10   0.0042   0.0003  -0.0046   0.0001  -0.0037   0.0043
   8 │ 2019-01-11  -0.0001   0.0012   0.0022   0.0001  -0.002    0.0
  ⋮  │     ⋮          ⋮        ⋮        ⋮        ⋮        ⋮        ⋮
 666 │ 2021-08-23   0.0108   0.0092  -0.0083   0.0      0.0076   0.0108
 667 │ 2021-08-24   0.0041   0.0034   0.0038   0.0      0.0094   0.0041
 668 │ 2021-08-25   0.0026  -0.0004   0.0034   0.0      0.0072   0.0026
 669 │ 2021-08-26  -0.0066  -0.004   -0.0031   0.0     -0.0031  -0.0066
 670 │ 2021-08-27   0.0108   0.0162   0.003    0.0      0.0094   0.0108
 671 │ 2021-08-30   0.0035  -0.0035  -0.0138   0.0     -0.0117   0.0035
 672 │ 2021-08-31  -0.0013   0.0043  -0.0005   0.0     -0.002   -0.0013
                                                        657 rows omitted
```
…
It is also easy to calculate some statistics for the estimation window:
- Variance of firm returns (similar equation for standard deviation): `var(rr)` 0.00020283685456709143
- Firm's market beta: `beta(rr)` 0.7698040453871026
- Firm's market alpha: `alpha(rr)` -0.00029218876560305055

## More Data Using DataFramesMeta

While the above works well, abnormal returns are often calculated on thousands or more firm-events. Here, I earnings announcements for about 100 firms from March to November 2020:
```julia
df_events = CSV.File(joinpath("data", "firm_earnings_announcements.csv")) |> DataFrame
```

```
283×2 DataFrame
 Row │ permno  ea
     │ Int64   Date
─────┼────────────────────
   1 │  49373  2020-03-05
   2 │  23660  2020-03-19
   3 │  17144  2020-03-18
   4 │  52708  2020-03-19
   5 │  57665  2020-03-24
   6 │  61621  2020-03-25
   7 │  10104  2020-03-12
   8 │  75154  2020-03-19
  ⋮  │   ⋮         ⋮
 277 │  90373  2020-10-29
 278 │  90386  2020-11-02
 279 │  90993  2020-10-29
 280 │  90880  2020-10-28
 281 │  91668  2020-10-30
 282 │  12449  2020-11-05
 283 │  61399  2020-11-18
          268 rows omitted
```
…
